[
  {
    "firstLanguage": "poulet",
    "secondLanguage": "chicken"
  },
  {
    "firstLanguage": "clavier",
    "secondLanguage": "keyboard"
  },
  {
    "firstLanguage": "canard",
    "secondLanguage": "duck"
  },
  {
    "firstLanguage": "pompier",
    "secondLanguage": "firefighter"
  },
  {
    "firstLanguage": "stylo",
    "secondLanguage": "pencil"
  },
  {
    "firstLanguage": "ordinateur",
    "secondLanguage": "computer"
  },
  {
    "firstLanguage": "souris",
    "secondLanguage": "mouse"
  }
]
